%YAML 1.1
%TAG !u! tag:unity3d.com,2011:
--- !u!114 &11400000
MonoBehaviour:
  m_ObjectHideFlags: 0
  m_PrefabParentObject: {fileID: 0}
  m_PrefabInternal: {fileID: 0}
  m_GameObject: {fileID: 0}
  m_Enabled: 1
  m_EditorHideFlags: 0
  m_Script: {fileID: 11500000, guid: d0b2170e812742b44849dd5559bb21d1, type: 3}
  m_Name: ProjectTrashesSettings
  m_EditorClassIdentifier: 
  serializationData:
    SerializedFormat: 2
    SerializedBytes: 
    ReferencedUnityObjects:
    - {fileID: 114758841045171172, guid: 978b22b65525f254bb2c6df05ad00f11, type: 2}
    - {fileID: 21300000, guid: 395b7c3bf1bc4e9489419bfd4598474e, type: 3}
    - {fileID: 114396697135624658, guid: 5c1a9a6e0c428e94c879bd41e4d78510, type: 2}
    - {fileID: 21300000, guid: 74df8fda96103224aba160a518c29004, type: 3}
    - {fileID: 114495191302899244, guid: 5e6727c662f81f448b52aa4f468ec536, type: 2}
    - {fileID: 21300000, guid: 6399dc5e56709274c93275f10e6a2fa8, type: 3}
    - {fileID: 114379066652614290, guid: 906fda038e1d8bf4ea09367be9583258, type: 2}
    - {fileID: 21300000, guid: e92e062836b11e24cb61f436c8947878, type: 3}
    - {fileID: 114485914582921484, guid: 0a068e47b23b2fa45826434470aefe24, type: 2}
    - {fileID: 21300000, guid: 1f40e2e183b0ffb44b4eb9007ff0d089, type: 3}
    - {fileID: 114935582760252032, guid: c427355915ff8a047b209e8d0c7e0cc1, type: 2}
    - {fileID: 21300000, guid: 53780da86976da54baade21e1332404b, type: 3}
    - {fileID: 114241626669523666, guid: 5ea61a50c07af054494af7efed347604, type: 2}
    - {fileID: 21300000, guid: 708e2dc3f29e9954cb55ce16c99c69b5, type: 3}
    - {fileID: 114080422922905498, guid: 7f999d94c864419429de2cef519bd20a, type: 2}
    - {fileID: 21300000, guid: 90c1540e20956a44db110680ada4244a, type: 3}
    - {fileID: 114003461473003266, guid: 1880a364ee380a24185d4ffa23d3b160, type: 2}
    - {fileID: 21300000, guid: a2634dee03ce8084c990dc5721288012, type: 3}
    - {fileID: 114809650384816216, guid: e4a11f4d7c6e0f949abffbf83a727e90, type: 2}
    - {fileID: 21300000, guid: 1dfeb866af1631243a9ffdc7ce6299d9, type: 3}
    - {fileID: 114782615267300382, guid: f95b7ea607d7589468566c33d01f46ce, type: 2}
    - {fileID: 21300000, guid: a7b2ff5a5eae1474598b86ee78b8a789, type: 3}
    - {fileID: 114036034681839048, guid: c6e6ccece444cd846b474ed5b280dc4b, type: 2}
    - {fileID: 21300000, guid: aab53f70b9fa98746a8cfb0a5d61569b, type: 3}
    - {fileID: 114819713771282502, guid: f1dff0949c95e244bad763e435af79d9, type: 2}
    - {fileID: 21300000, guid: 1c05057c51b585649bbe476a51baa8a6, type: 3}
    - {fileID: 114139978280493308, guid: 06242a99a5ec2de4a99d7b362be3025a, type: 2}
    - {fileID: 21300000, guid: c777b51cd07716e46a4803441d302a50, type: 3}
    - {fileID: 114318938470937498, guid: fe1a1d1fa6302f847ab9f279998e5b40, type: 2}
    - {fileID: 21300000, guid: 3ee5584bc52b0014bb42b4480d60f069, type: 3}
    - {fileID: 114347447559097862, guid: c5dd0d9e4a8e6bf46a5dead481c49ab2, type: 2}
    - {fileID: 21300000, guid: 8ab561c1e41d97b4d9b65062fc6f6c5a, type: 3}
    - {fileID: 114435429330296380, guid: 89cbc74f4e2123541848bad559dff9e8, type: 2}
    - {fileID: 21300000, guid: c2c98162e389e5c488c0ef40ee70d54f, type: 3}
    - {fileID: 114813275540665448, guid: 37c4d9ffe8e9ba244a18fa2c7b2ee94f, type: 2}
    - {fileID: 21300000, guid: 4232eff7a858d884bbedc80ada736bb2, type: 3}
    - {fileID: 114661378154361360, guid: 9a008b035c2bc664897c850c1eb5cc2b, type: 2}
    - {fileID: 21300000, guid: 75a8c50103299c04891306d009d676e1, type: 3}
    - {fileID: 114267102181636804, guid: faf60b5f6e9f57440b6945cc048f04ea, type: 2}
    - {fileID: 21300000, guid: 889d9084f91e409449bcbb1d7a35b90e, type: 3}
    - {fileID: 114559990382582018, guid: 5f54c963cf775614b882d889382696b0, type: 2}
    - {fileID: 21300000, guid: f68645662d74e3948936259eba2f8083, type: 3}
    - {fileID: 114720904255454770, guid: a2a1b18512e50d64eb531fd1c53b3262, type: 2}
    - {fileID: 21300000, guid: 961456a94329539499cf8590b4157315, type: 3}
    - {fileID: 114202831618966526, guid: cb44a765a074d054a93ec6a9b0245472, type: 2}
    - {fileID: 21300000, guid: 17b02ed0d07066e48b90fa0025ea9fc5, type: 3}
    - {fileID: 114317496920542172, guid: 05f7c3315549afc419e0574b7bb87e51, type: 2}
    - {fileID: 21300000, guid: 76591e4c3473dec40b25c22f6757fe9d, type: 3}
    - {fileID: 114612739282862570, guid: 8e1c96ff65c255e46b5eb1539b7faf28, type: 2}
    - {fileID: 21300000, guid: 1e1cb0258509c0f419dc105aa9d3ada4, type: 3}
    - {fileID: 114129940867713456, guid: c27b0080ecb6070408316d49f2267517, type: 2}
    - {fileID: 21300000, guid: cb094172db5e8d54d8eed327d65aa5c5, type: 3}
    - {fileID: 114954846999656948, guid: 04ab1c7af9253d04999244ce08cc4f78, type: 2}
    - {fileID: 21300000, guid: 098ee66c6d2721b4f8ab058d5c08d8ca, type: 3}
    - {fileID: 114468463351004786, guid: 69549d066aa777149b3a3dbaa409f2c0, type: 2}
    - {fileID: 21300000, guid: f873daaee923ae84fa481e171aee1be9, type: 3}
    - {fileID: 114313872080204496, guid: 24fbe80fd750aa74799a3e263f3f4f57, type: 2}
    - {fileID: 21300000, guid: 0d9937b741a7dc142af0f25af0ecb62b, type: 3}
    - {fileID: 114257775687642476, guid: bfdf844c42ca85645b9053cdfdcbc9d3, type: 2}
    - {fileID: 21300000, guid: 55e2602cae0a52f42a7753e041343358, type: 3}
    - {fileID: 114726489006070228, guid: c0d2a464bfdc8834ca4a48135e0a0ee7, type: 2}
    - {fileID: 21300000, guid: 23819fed5dc130c4ab178b6529a20bb8, type: 3}
    - {fileID: 114129544502368822, guid: e2be8c369f20e6247ab6d3762664f42b, type: 2}
    - {fileID: 21300000, guid: 7adb629f4c116c94fa35bfb4ae1db6be, type: 3}
    - {fileID: 114882460851516018, guid: a9b69b8a6ff675e42a737f6f513bc4cc, type: 2}
    - {fileID: 21300000, guid: fc0482f0fe1d0894485fbdec624ba994, type: 3}
    - {fileID: 114088333157152690, guid: ae343b24c3662d4439809819f0894daa, type: 2}
    - {fileID: 21300000, guid: d8b1332a712744747809e77ffdaee38d, type: 3}
    - {fileID: 114667883316811876, guid: 4db01d8ef8f9d6343acc54a271590410, type: 2}
    - {fileID: 21300000, guid: 44025d7065ab43049aeff28cc895b63d, type: 3}
    - {fileID: 114405366981613758, guid: 7355f729185b07d46a5919d0483b618c, type: 2}
    - {fileID: 21300000, guid: ac59df94e7e089c43ad0de46af83f19c, type: 3}
    - {fileID: 114589915395513784, guid: 947e9d3b17b5c034bb846f66016fea1c, type: 2}
    - {fileID: 21300000, guid: 66a4e6fbeddc65f4781038359301562b, type: 3}
    - {fileID: 114340732307452500, guid: 6936d1a5aca462d4183b465f7d43bd97, type: 2}
    - {fileID: 21300000, guid: 7326c9f156190a84086a2c3f995cbde0, type: 3}
    - {fileID: 114253769018119226, guid: f4b07aaca486f5f49a87c12e4a0a7895, type: 2}
    - {fileID: 21300000, guid: f01edc7ef4cfcdf4c98d1d1dc70480c1, type: 3}
    - {fileID: 114672102464093198, guid: 0dee9824425663943b9d3de820faa211, type: 2}
    - {fileID: 21300000, guid: 188fb6c722263ad4192d4a5063b2481f, type: 3}
    - {fileID: 114186947932818484, guid: e47365c1dc808cc40bce88e4c34a5d3b, type: 2}
    - {fileID: 21300000, guid: 1f3cb7b135b058049aacaf0059ccf1f9, type: 3}
    - {fileID: 114442133302181820, guid: 060b78d1b6c04de49b79958b1b47726a, type: 2}
    - {fileID: 21300000, guid: dc217f192a587554bb57188500cec17b, type: 3}
    - {fileID: 114593930498827968, guid: 0e6e95bcba7712b4e9b6e64d72feff16, type: 2}
    - {fileID: 21300000, guid: 9ecd60adf30c0344d921d7cc35b0f35d, type: 3}
    - {fileID: 114246373707637258, guid: a6d0dd9809de7b1499f82044558bf1bd, type: 2}
    - {fileID: 21300000, guid: c7b82cabce3fca84c9cd8e405eda1084, type: 3}
    - {fileID: 114287750692691252, guid: 0000904963a51344a8c60d734e7c9133, type: 2}
    - {fileID: 21300000, guid: b83a4a5f81f23f749ab002845afe8f90, type: 3}
    - {fileID: 114442277097900586, guid: 78f0c73021dc6bd4e95d49a5797c306f, type: 2}
    - {fileID: 21300000, guid: 7f785a16b1a29ba4db554f2d158c3dc1, type: 3}
    - {fileID: 114223648399285198, guid: c380de8a0dd965a4196eb25a58e0c7ed, type: 2}
    - {fileID: 21300000, guid: 013ea8e3179b23948be58f6eee274e68, type: 3}
    SerializedBytesString: 
    Prefab: {fileID: 0}
    PrefabModificationsReferencedUnityObjects: []
    PrefabModifications: []
    SerializationNodes:
    - Name: _trashesGroups
      Entry: 7
      Data: 0|System.Collections.Generic.Dictionary`2[[BinType, Assembly-CSharp],[TrashData[],
        Assembly-CSharp]], mscorlib
    - Name: comparer
      Entry: 7
      Data: 1|System.Collections.Generic.EqualityComparer`1+DefaultComparer[[BinType,
        Assembly-CSharp]], mscorlib
    - Name: 
      Entry: 8
      Data: 
    - Name: 
      Entry: 12
      Data: 5
    - Name: 
      Entry: 7
      Data: 
    - Name: 
      Entry: 3
      Data: 0
    - Name: 
      Entry: 7
      Data: 2|TrashData[], Assembly-CSharp
    - Name: 
      Entry: 12
      Data: 3
    - Name: 
      Entry: 7
      Data: 3|TrashData, Assembly-CSharp
    - Name: Name
      Entry: 1
      Data: Szklane butelki
    - Name: LocalizationId
      Entry: 1
      Data: t_szklaneButelki
    - Name: TrashPrefab
      Entry: 10
      Data: 0
    - Name: TrashIcon
      Entry: 10
      Data: 1
    - Name: 
      Entry: 8
      Data: 
    - Name: 
      Entry: 7
      Data: 4|TrashData, Assembly-CSharp
    - Name: Name
      Entry: 1
      Data: Sloik
    - Name: LocalizationId
      Entry: 1
      Data: t_sloik
    - Name: TrashPrefab
      Entry: 10
      Data: 2
    - Name: TrashIcon
      Entry: 10
      Data: 3
    - Name: 
      Entry: 8
      Data: 
    - Name: 
      Entry: 7
      Data: 5|TrashData, Assembly-CSharp
    - Name: Name
      Entry: 1
      Data: Kosmetyki
    - Name: LocalizationId
      Entry: 1
      Data: t_kosmetyki
    - Name: TrashPrefab
      Entry: 10
      Data: 4
    - Name: TrashIcon
      Entry: 10
      Data: 5
    - Name: 
      Entry: 8
      Data: 
    - Name: 
      Entry: 13
      Data: 
    - Name: 
      Entry: 8
      Data: 
    - Name: 
      Entry: 8
      Data: 
    - Name: 
      Entry: 7
      Data: 
    - Name: 
      Entry: 3
      Data: 2
    - Name: 
      Entry: 7
      Data: 6|TrashData[], Assembly-CSharp
    - Name: 
      Entry: 12
      Data: 12
    - Name: 
      Entry: 7
      Data: 7|TrashData, Assembly-CSharp
    - Name: Name
      Entry: 1
      Data: Butelka po wodzie
    - Name: LocalizationId
      Entry: 1
      Data: t_butelkaPoWodzie
    - Name: TrashPrefab
      Entry: 10
      Data: 6
    - Name: TrashIcon
      Entry: 10
      Data: 7
    - Name: 
      Entry: 8
      Data: 
    - Name: 
      Entry: 7
      Data: 8|TrashData, Assembly-CSharp
    - Name: Name
      Entry: 1
      Data: Karton po mleku
    - Name: LocalizationId
      Entry: 1
      Data: t_mleko
    - Name: TrashPrefab
      Entry: 10
      Data: 8
    - Name: TrashIcon
      Entry: 10
      Data: 9
    - Name: 
      Entry: 8
      Data: 
    - Name: 
      Entry: 7
      Data: 9|TrashData, Assembly-CSharp
    - Name: Name
      Entry: 1
      Data: Torba foliowa
    - Name: LocalizationId
      Entry: 1
      Data: t_torbaFoliowa
    - Name: TrashPrefab
      Entry: 10
      Data: 10
    - Name: TrashIcon
      Entry: 10
      Data: 11
    - Name: 
      Entry: 8
      Data: 
    - Name: 
      Entry: 7
      Data: 10|TrashData, Assembly-CSharp
    - Name: Name
      Entry: 1
      Data: Puszka po konserwie
    - Name: LocalizationId
      Entry: 1
      Data: t_konserwa
    - Name: TrashPrefab
      Entry: 10
      Data: 12
    - Name: TrashIcon
      Entry: 10
      Data: 13
    - Name: 
      Entry: 8
      Data: 
    - Name: 
      Entry: 7
      Data: 11|TrashData, Assembly-CSharp
    - Name: Name
      Entry: 1
      Data: Puszka po napoju
    - Name: LocalizationId
      Entry: 1
      Data: t_puszka
    - Name: TrashPrefab
      Entry: 10
      Data: 14
    - Name: TrashIcon
      Entry: 10
      Data: 15
    - Name: 
      Entry: 8
      Data: 
    - Name: 
      Entry: 7
      Data: 12|TrashData, Assembly-CSharp
    - Name: Name
      Entry: 1
      Data: Butelka po szamponie
    - Name: LocalizationId
      Entry: 1
      Data: t_szampon
    - Name: TrashPrefab
      Entry: 10
      Data: 16
    - Name: TrashIcon
      Entry: 10
      Data: 17
    - Name: 
      Entry: 8
      Data: 
    - Name: 
      Entry: 7
      Data: 13|TrashData, Assembly-CSharp
    - Name: Name
      Entry: 1
      Data: Jogurt
    - Name: LocalizationId
      Entry: 1
      Data: t_jogurt
    - Name: TrashPrefab
      Entry: 10
      Data: 18
    - Name: TrashIcon
      Entry: 10
      Data: 19
    - Name: 
      Entry: 8
      Data: 
    - Name: 
      Entry: 7
      Data: 14|TrashData, Assembly-CSharp
    - Name: Name
      Entry: 1
      Data: Kapsle
    - Name: LocalizationId
      Entry: 1
      Data: t_kapsle
    - Name: TrashPrefab
      Entry: 10
      Data: 20
    - Name: TrashIcon
      Entry: 10
      Data: 21
    - Name: 
      Entry: 8
      Data: 
    - Name: 
      Entry: 7
      Data: 15|TrashData, Assembly-CSharp
    - Name: Name
      Entry: 1
      Data: Zakretki
    - Name: LocalizationId
      Entry: 1
      Data: t_zakretki
    - Name: TrashPrefab
      Entry: 10
      Data: 22
    - Name: TrashIcon
      Entry: 10
      Data: 23
    - Name: 
      Entry: 8
      Data: 
    - Name: 
      Entry: 7
      Data: 16|TrashData, Assembly-CSharp
    - Name: Name
      Entry: 1
      Data: Soczek
    - Name: LocalizationId
      Entry: 1
      Data: t_soczek
    - Name: TrashPrefab
      Entry: 10
      Data: 24
    - Name: TrashIcon
      Entry: 10
      Data: 25
    - Name: 
      Entry: 8
      Data: 
    - Name: 
      Entry: 7
      Data: 17|TrashData, Assembly-CSharp
    - Name: Name
      Entry: 1
      Data: "Gw\xF3\u017Ad\u017A"
    - Name: LocalizationId
      Entry: 1
      Data: t_gwozdz
    - Name: TrashPrefab
      Entry: 10
      Data: 26
    - Name: TrashIcon
      Entry: 10
      Data: 27
    - Name: 
      Entry: 8
      Data: 
    - Name: 
      Entry: 7
      Data: 18|TrashData, Assembly-CSharp
    - Name: Name
      Entry: 1
      Data: Butelka do prania
    - Name: LocalizationId
      Entry: 1
      Data: "t_plynDoPrania\t"
    - Name: TrashPrefab
      Entry: 10
      Data: 28
    - Name: TrashIcon
      Entry: 10
      Data: 29
    - Name: 
      Entry: 8
      Data: 
    - Name: 
      Entry: 13
      Data: 
    - Name: 
      Entry: 8
      Data: 
    - Name: 
      Entry: 8
      Data: 
    - Name: 
      Entry: 7
      Data: 
    - Name: 
      Entry: 3
      Data: 1
    - Name: 
      Entry: 7
      Data: 19|TrashData[], Assembly-CSharp
    - Name: 
      Entry: 12
      Data: 8
    - Name: 
      Entry: 7
      Data: 20|TrashData, Assembly-CSharp
    - Name: Name
      Entry: 1
      Data: Karton
    - Name: LocalizationId
      Entry: 1
      Data: t_karton
    - Name: TrashPrefab
      Entry: 10
      Data: 30
    - Name: TrashIcon
      Entry: 10
      Data: 31
    - Name: 
      Entry: 8
      Data: 
    - Name: 
      Entry: 7
      Data: 21|TrashData, Assembly-CSharp
    - Name: Name
      Entry: 1
      Data: Gazety
    - Name: LocalizationId
      Entry: 1
      Data: t_gazety
    - Name: TrashPrefab
      Entry: 10
      Data: 32
    - Name: TrashIcon
      Entry: 10
      Data: 33
    - Name: 
      Entry: 8
      Data: 
    - Name: 
      Entry: 7
      Data: 22|TrashData, Assembly-CSharp
    - Name: Name
      Entry: 1
      Data: Zeszyt
    - Name: LocalizationId
      Entry: 1
      Data: t_zeszyt
    - Name: TrashPrefab
      Entry: 10
      Data: 34
    - Name: TrashIcon
      Entry: 10
      Data: 35
    - Name: 
      Entry: 8
      Data: 
    - Name: 
      Entry: 7
      Data: 23|TrashData, Assembly-CSharp
    - Name: Name
      Entry: 1
      Data: Torba papierowa
    - Name: LocalizationId
      Entry: 1
      Data: t_torbaPapierowa
    - Name: TrashPrefab
      Entry: 10
      Data: 36
    - Name: TrashIcon
      Entry: 10
      Data: 37
    - Name: 
      Entry: 8
      Data: 
    - Name: 
      Entry: 7
      Data: 24|TrashData, Assembly-CSharp
    - Name: Name
      Entry: 1
      Data: Ksiazki
    - Name: LocalizationId
      Entry: 1
      Data: t_ksiazki
    - Name: TrashPrefab
      Entry: 10
      Data: 38
    - Name: TrashIcon
      Entry: 10
      Data: 39
    - Name: 
      Entry: 8
      Data: 
    - Name: 
      Entry: 7
      Data: 25|TrashData, Assembly-CSharp
    - Name: Name
      Entry: 1
      Data: ZadrukowanyPapier
    - Name: LocalizationId
      Entry: 1
      Data: t_zadrukowaneKartki
    - Name: TrashPrefab
      Entry: 10
      Data: 40
    - Name: TrashIcon
      Entry: 10
      Data: 41
    - Name: 
      Entry: 8
      Data: 
    - Name: 
      Entry: 7
      Data: 26|TrashData, Assembly-CSharp
    - Name: Name
      Entry: 1
      Data: Tektury
    - Name: LocalizationId
      Entry: 1
      Data: t_tektury
    - Name: TrashPrefab
      Entry: 10
      Data: 42
    - Name: TrashIcon
      Entry: 10
      Data: 43
    - Name: 
      Entry: 8
      Data: 
    - Name: 
      Entry: 7
      Data: 27|TrashData, Assembly-CSharp
    - Name: Name
      Entry: 1
      Data: Koperty
    - Name: LocalizationId
      Entry: 1
      Data: t_koperty
    - Name: TrashPrefab
      Entry: 10
      Data: 44
    - Name: TrashIcon
      Entry: 10
      Data: 45
    - Name: 
      Entry: 8
      Data: 
    - Name: 
      Entry: 13
      Data: 
    - Name: 
      Entry: 8
      Data: 
    - Name: 
      Entry: 8
      Data: 
    - Name: 
      Entry: 7
      Data: 
    - Name: 
      Entry: 3
      Data: 3
    - Name: 
      Entry: 7
      Data: 28|TrashData[], Assembly-CSharp
    - Name: 
      Entry: 12
      Data: 10
    - Name: 
      Entry: 7
      Data: 29|TrashData, Assembly-CSharp
    - Name: Name
      Entry: 1
      Data: Galezie
    - Name: LocalizationId
      Entry: 1
      Data: t_galezie
    - Name: TrashPrefab
      Entry: 10
      Data: 46
    - Name: TrashIcon
      Entry: 10
      Data: 47
    - Name: 
      Entry: 8
      Data: 
    - Name: 
      Entry: 7
      Data: 30|TrashData, Assembly-CSharp
    - Name: Name
      Entry: 1
      Data: Resztki jedzenia
    - Name: LocalizationId
      Entry: 1
      Data: t_resztkiJedzenia
    - Name: TrashPrefab
      Entry: 10
      Data: 48
    - Name: TrashIcon
      Entry: 10
      Data: 49
    - Name: 
      Entry: 8
      Data: 
    - Name: 
      Entry: 7
      Data: 31|TrashData, Assembly-CSharp
    - Name: Name
      Entry: 1
      Data: Obierki
    - Name: LocalizationId
      Entry: 1
      Data: t_obierki
    - Name: TrashPrefab
      Entry: 10
      Data: 50
    - Name: TrashIcon
      Entry: 10
      Data: 51
    - Name: 
      Entry: 8
      Data: 
    - Name: 
      Entry: 7
      Data: 32|TrashData, Assembly-CSharp
    - Name: Name
      Entry: 1
      Data: Liscie
    - Name: LocalizationId
      Entry: 1
      Data: t_liscie
    - Name: TrashPrefab
      Entry: 10
      Data: 52
    - Name: TrashIcon
      Entry: 10
      Data: 53
    - Name: 
      Entry: 8
      Data: 
    - Name: 
      Entry: 7
      Data: 33|TrashData, Assembly-CSharp
    - Name: Name
      Entry: 1
      Data: Kwiaty
    - Name: LocalizationId
      Entry: 1
      Data: t_kwiaty
    - Name: TrashPrefab
      Entry: 10
      Data: 54
    - Name: TrashIcon
      Entry: 10
      Data: 55
    - Name: 
      Entry: 8
      Data: 
    - Name: 
      Entry: 7
      Data: 34|TrashData, Assembly-CSharp
    - Name: Name
      Entry: 1
      Data: Chusteczki
    - Name: LocalizationId
      Entry: 1
      Data: t_chusteczki
    - Name: TrashPrefab
      Entry: 10
      Data: 56
    - Name: TrashIcon
      Entry: 10
      Data: 57
    - Name: 
      Entry: 8
      Data: 
    - Name: 
      Entry: 7
      Data: 35|TrashData, Assembly-CSharp
    - Name: Name
      Entry: 1
      Data: Ogryzki
    - Name: LocalizationId
      Entry: 1
      Data: t_ogryzki
    - Name: TrashPrefab
      Entry: 10
      Data: 58
    - Name: TrashIcon
      Entry: 10
      Data: 59
    - Name: 
      Entry: 8
      Data: 
    - Name: 
      Entry: 7
      Data: 36|TrashData, Assembly-CSharp
    - Name: Name
      Entry: 1
      Data: Trawa
    - Name: LocalizationId
      Entry: 1
      Data: t_trawa
    - Name: TrashPrefab
      Entry: 10
      Data: 60
    - Name: TrashIcon
      Entry: 10
      Data: 61
    - Name: 
      Entry: 8
      Data: 
    - Name: 
      Entry: 7
      Data: 37|TrashData, Assembly-CSharp
    - Name: Name
      Entry: 1
      Data: Reczniki papierowe
    - Name: LocalizationId
      Entry: 1
      Data: t_zabrudzoneReczniki
    - Name: TrashPrefab
      Entry: 10
      Data: 62
    - Name: TrashIcon
      Entry: 10
      Data: 63
    - Name: 
      Entry: 8
      Data: 
    - Name: 
      Entry: 7
      Data: 38|TrashData, Assembly-CSharp
    - Name: Name
      Entry: 1
      Data: Banan
    - Name: LocalizationId
      Entry: 1
      Data: t_banan
    - Name: TrashPrefab
      Entry: 10
      Data: 64
    - Name: TrashIcon
      Entry: 10
      Data: 65
    - Name: 
      Entry: 8
      Data: 
    - Name: 
      Entry: 13
      Data: 
    - Name: 
      Entry: 8
      Data: 
    - Name: 
      Entry: 8
      Data: 
    - Name: 
      Entry: 7
      Data: 
    - Name: 
      Entry: 3
      Data: 4
    - Name: 
      Entry: 7
      Data: 39|TrashData[], Assembly-CSharp
    - Name: 
      Entry: 12
      Data: 14
    - Name: 
      Entry: 7
      Data: 40|TrashData, Assembly-CSharp
    - Name: Name
      Entry: 1
      Data: Opakowanie po chipsach
    - Name: LocalizationId
      Entry: 1
      Data: t_chipsy
    - Name: TrashPrefab
      Entry: 10
      Data: 66
    - Name: TrashIcon
      Entry: 10
      Data: 67
    - Name: 
      Entry: 8
      Data: 
    - Name: 
      Entry: 7
      Data: 41|TrashData, Assembly-CSharp
    - Name: Name
      Entry: 1
      Data: Kosci
    - Name: LocalizationId
      Entry: 1
      Data: t_kosci
    - Name: TrashPrefab
      Entry: 10
      Data: 68
    - Name: TrashIcon
      Entry: 10
      Data: 69
    - Name: 
      Entry: 8
      Data: 
    - Name: 
      Entry: 7
      Data: 42|TrashData, Assembly-CSharp
    - Name: Name
      Entry: 1
      Data: Zwirek
    - Name: LocalizationId
      Entry: 1
      Data: t_zwirek
    - Name: TrashPrefab
      Entry: 10
      Data: 70
    - Name: TrashIcon
      Entry: 10
      Data: 71
    - Name: 
      Entry: 8
      Data: 
    - Name: 
      Entry: 7
      Data: 43|TrashData, Assembly-CSharp
    - Name: Name
      Entry: 1
      Data: Naczynia
    - Name: LocalizationId
      Entry: 1
      Data: t_naczynia
    - Name: TrashPrefab
      Entry: 10
      Data: 72
    - Name: TrashIcon
      Entry: 10
      Data: 73
    - Name: 
      Entry: 8
      Data: 
    - Name: 
      Entry: 7
      Data: 44|TrashData, Assembly-CSharp
    - Name: Name
      Entry: 1
      Data: BrudnyPapier
    - Name: LocalizationId
      Entry: 1
      Data: t_brudnyPapier
    - Name: TrashPrefab
      Entry: 10
      Data: 74
    - Name: TrashIcon
      Entry: 10
      Data: 75
    - Name: 
      Entry: 8
      Data: 
    - Name: 
      Entry: 7
      Data: 45|TrashData, Assembly-CSharp
    - Name: Name
      Entry: 1
      Data: "O\u015Bci"
    - Name: LocalizationId
      Entry: 1
      Data: t_osci
    - Name: TrashPrefab
      Entry: 10
      Data: 76
    - Name: TrashIcon
      Entry: 10
      Data: 77
    - Name: 
      Entry: 8
      Data: 
    - Name: 
      Entry: 7
      Data: 46|TrashData, Assembly-CSharp
    - Name: Name
      Entry: 1
      Data: TlusteNaczynia
    - Name: LocalizationId
      Entry: 1
      Data: t_tlusteNaczynia
    - Name: TrashPrefab
      Entry: 10
      Data: 78
    - Name: TrashIcon
      Entry: 10
      Data: 79
    - Name: 
      Entry: 8
      Data: 
    - Name: 
      Entry: 7
      Data: 47|TrashData, Assembly-CSharp
    - Name: Name
      Entry: 1
      Data: Pampersy
    - Name: LocalizationId
      Entry: 1
      Data: t_pampersy
    - Name: TrashPrefab
      Entry: 10
      Data: 80
    - Name: TrashIcon
      Entry: 10
      Data: 81
    - Name: 
      Entry: 8
      Data: 
    - Name: 
      Entry: 7
      Data: 48|TrashData, Assembly-CSharp
    - Name: Name
      Entry: 1
      Data: Ceramika
    - Name: LocalizationId
      Entry: 1
      Data: t_ceramika
    - Name: TrashPrefab
      Entry: 10
      Data: 82
    - Name: TrashIcon
      Entry: 10
      Data: 83
    - Name: 
      Entry: 8
      Data: 
    - Name: 
      Entry: 7
      Data: 49|TrashData, Assembly-CSharp
    - Name: Name
      Entry: 1
      Data: Porcelana
    - Name: LocalizationId
      Entry: 1
      Data: t_porcelana
    - Name: TrashPrefab
      Entry: 10
      Data: 84
    - Name: TrashIcon
      Entry: 10
      Data: 85
    - Name: 
      Entry: 8
      Data: 
    - Name: 
      Entry: 7
      Data: 50|TrashData, Assembly-CSharp
    - Name: Name
      Entry: 1
      Data: Lustro
    - Name: LocalizationId
      Entry: 1
      Data: t_lustra
    - Name: TrashPrefab
      Entry: 10
      Data: 86
    - Name: TrashIcon
      Entry: 10
      Data: 87
    - Name: 
      Entry: 8
      Data: 
    - Name: 
      Entry: 7
      Data: 51|TrashData, Assembly-CSharp
    - Name: Name
      Entry: 1
      Data: Okulary
    - Name: LocalizationId
      Entry: 1
      Data: t_okulary
    - Name: TrashPrefab
      Entry: 10
      Data: 88
    - Name: TrashIcon
      Entry: 10
      Data: 89
    - Name: 
      Entry: 8
      Data: 
    - Name: 
      Entry: 7
      Data: 52|TrashData, Assembly-CSharp
    - Name: Name
      Entry: 1
      Data: Ubrania
    - Name: LocalizationId
      Entry: 1
      Data: t_ubrania
    - Name: TrashPrefab
      Entry: 10
      Data: 90
    - Name: TrashIcon
      Entry: 10
      Data: 91
    - Name: 
      Entry: 8
      Data: 
    - Name: 
      Entry: 7
      Data: 53|TrashData, Assembly-CSharp
    - Name: Name
      Entry: 1
      Data: Naczynia styropianowe
    - Name: LocalizationId
      Entry: 1
      Data: t_naczyniaStyropianowe
    - Name: TrashPrefab
      Entry: 10
      Data: 92
    - Name: TrashIcon
      Entry: 10
      Data: 93
    - Name: 
      Entry: 8
      Data: 
    - Name: 
      Entry: 13
      Data: 
    - Name: 
      Entry: 8
      Data: 
    - Name: 
      Entry: 8
      Data: 
    - Name: 
      Entry: 13
      Data: 
    - Name: 
      Entry: 8
      Data: 
